{
    "KPlugin": {
        "Description": "Temporary password caching",
        "Description[ar]": "تخبئة مؤقتة لكلمات السر",
        "Description[az]": "Parolların müvəqqəti keşlənməsi",
        "Description[ca@valencia]": "Cau temporal de les contrasenyes",
        "Description[ca]": "Cau temporal de les contrasenyes",
        "Description[cs]": "Dočasné ukládání hesel do mezipaměti",
        "Description[da]": "Midlertidig caching af adgangskoder",
        "Description[de]": "Temporäre Passwort-Zwischenspeicherung",
        "Description[el]": "Προσωρινή λανθάνουσα μνήμη κωδικών πρόσβασης",
        "Description[en_GB]": "Temporary password caching",
        "Description[es]": "Caché temporal de contraseñas",
        "Description[et]": "Ajutine parooli puhverdamine",
        "Description[eu]": "Aldi baterako pasahitzen cachea",
        "Description[fi]": "Väliaikainen salasanavälimuisti",
        "Description[fr]": "Mise en cache temporaire du mot de passe",
        "Description[gd]": "Tasgadh sealach nam faclan-faire",
        "Description[gl]": "Caché temporal de contrasinais",
        "Description[hu]": "Átmeneti jelszó-gyorsítótárazás",
        "Description[ia]": "Ponente in cache le contrasigno temporari",
        "Description[id]": "Penyinggahan sandi temporer",
        "Description[it]": "Cache temporanea per le password",
        "Description[ko]": "임시 암호 캐시",
        "Description[lt]": "Laikinas slaptažodžių podėliavimas",
        "Description[nl]": "Tijdelijke caching van wachtwoorden",
        "Description[nn]": "Mellombels lagring av passord",
        "Description[pl]": "Tymczasowe zapamiętywanie haseł",
        "Description[pt]": "'Cache' temporária das senhas",
        "Description[pt_BR]": "Cache temporário de senhas",
        "Description[ro]": "Păstrarea temporară a parolelor",
        "Description[ru]": "Временное кэширование паролей",
        "Description[sk]": "Dočasné ukladanie hesiel do vyrovnávacej pamäte",
        "Description[sl]": "Začasno predpomnjenje gesel",
        "Description[sr@ijekavian]": "Привремено кеширање лозинки",
        "Description[sr@ijekavianlatin]": "Privremeno keširanje lozinki",
        "Description[sr@latin]": "Privremeno keširanje lozinki",
        "Description[sr]": "Привремено кеширање лозинки",
        "Description[sv]": "Tillfällig lagring av lösenord",
        "Description[ta]": "தற்காலிக கடவுச்சொல் சேமிப்பு",
        "Description[tg]": "Зерҳофизаи ниҳонвожаи муваққатӣ",
        "Description[tr]": "Geçici parola önbelleği",
        "Description[uk]": "Тимчасове кешування паролів",
        "Description[vi]": "Lưu sẵn mật khẩu tạm",
        "Description[x-test]": "xxTemporary password cachingxx",
        "Description[zh_CN]": "临时性密码缓存",
        "Description[zh_TW]": "暫時密碼快取",
        "Name": "Password Caching",
        "Name[ar]": "تخبئة كلمات السر",
        "Name[az]": "Parol Keşləməsi",
        "Name[ca@valencia]": "Cau de les contrasenyes",
        "Name[ca]": "Cau de les contrasenyes",
        "Name[cs]": "Ukládání hesel do mezipaměti",
        "Name[da]": "Caching af adgangskoder",
        "Name[de]": "Passwort-Zwischenspeicherung",
        "Name[el]": "Λανθάνουσα μνήμη κωδικών πρόσβασης",
        "Name[en_GB]": "Password Caching",
        "Name[es]": "Caché de contraseñas",
        "Name[et]": "Parooli puhverdamine",
        "Name[eu]": "Pasahitzen cachea",
        "Name[fi]": "Salasanavälimuisti",
        "Name[fr]": "Mise en cache du mot de passe",
        "Name[gd]": "Tasgadan nam faclan-faire",
        "Name[gl]": "Caché de contrasinais",
        "Name[hu]": "Jelszó-gyorsítótárazás",
        "Name[ia]": "Ponente in cache le contrasigno",
        "Name[id]": "Penyingahan Sandi",
        "Name[it]": "Cache delle password",
        "Name[ko]": "암호 캐시",
        "Name[lt]": "Slaptažodžių podėliavimas",
        "Name[nl]": "Caching van wachtwoorden",
        "Name[nn]": "Lagring av passord",
        "Name[pl]": "Zapamiętywanie haseł",
        "Name[pt]": "'Cache' das Senhas",
        "Name[pt_BR]": "Cache de senhas",
        "Name[ro]": "Păstrarea parolelor",
        "Name[ru]": "Кэширование паролей",
        "Name[sk]": "Ukladanie hesiel do vyrovnávacej pamäte",
        "Name[sl]": "Predpomnjenje gesel",
        "Name[sr@ijekavian]": "Кеширање лозинки",
        "Name[sr@ijekavianlatin]": "Keširanje lozinki",
        "Name[sr@latin]": "Keširanje lozinki",
        "Name[sr]": "Кеширање лозинки",
        "Name[sv]": "Lösenordslagring",
        "Name[ta]": "தற்காலிகக் கடவுச்சொல் சேமிப்பு",
        "Name[tg]": "Зерҳофизаи ниҳонвожа",
        "Name[tr]": "Parola Önbelleği",
        "Name[uk]": "Кешування паролів",
        "Name[vi]": "Lưu sẵn mật khẩu",
        "Name[x-test]": "xxPassword Cachingxx",
        "Name[zh_CN]": "密码缓存",
        "Name[zh_TW]": "密碼快取",
        "ServiceTypes": [
            "KDEDModule"
        ]
    },
    "X-KDE-DBus-ServiceName": "org.kde.kpasswdserver"
}
